[
        "Resource Contact Information - Reserved for state DEQ listings and other solid waste\r\ncontact listings.",
        "Other - Reserved for programs that don’t fit another category, such as a company with\r\ndrop-off bins where we’re unable to obtain the location of bins, or events until we have\r\nthe event system active.",
        "Government Packaging Curbside - A program operated with city, county or regional government funding that accepts packaging materials, such as glass, metal, paper or plastic (defaults as first listing in search results).",
        "Household Hazardous Waste - A program operated with city, county or regional government funding that collects household hazardous waste, either through a series of events or mobile collection",
        "Mail-In - National recycling opportunity via mail (shows up for all material searches\r\nregardless of location).",
        "Commercial Curbside - Operated by a for-profit business that collects from public.",
        "Government Organics Curbside - A program operated with city, county or regional government funding that accepts organic materials, such as yard waste or food waste (defaults as first listing in search results).",
        "Government Christmas Tree Curbside - A program operated with city, county or regional government funding that accepts Christmas trees at the curb (defaults as first listing in search results).",
        "Government Bulky Waste Curbside - A program operated with city, county or regional government funding that accepts bulky waste at the curb, such as furniture, appliances or electronics (defaults as first listing in search results)."
]